<?xml version="1.0" encoding="utf-8"?>
<!-- Generator: Adobe Illustrator 16.0.3, SVG Export Plug-In . SVG Version: 6.00 Build 0)  -->
<!DOCTYPE svg PUBLIC "-//W3C//DTD SVG 1.1//EN" "http://www.w3.org/Graphics/SVG/1.1/DTD/svg11.dtd">
<svg version="1.1" id="Полезные_ископаемые"
	 xmlns="http://www.w3.org/2000/svg" xmlns:xlink="http://www.w3.org/1999/xlink" x="0px" y="0px" width="1247.244px"
	 height="836.221px" viewBox="0 0 1247.244 836.221" enable-background="new 0 0 1247.244 836.221" xml:space="preserve">
<path fill="none" stroke="#231F20" stroke-width="0.5" stroke-linejoin="round" stroke-miterlimit="3.8637" d="M65.324,436.236"/>
<path fill="none" stroke="#231F20" stroke-width="0.5" stroke-linejoin="round" stroke-miterlimit="3.8637" d="M49.812,423.226"/>
<polygon fill="none" stroke="#231F20" stroke-width="0.5" stroke-miterlimit="3.8637" points="949.616,619.885 954.921,619.885 
	954.921,625.195 949.616,625.195 949.616,619.885 "/>
<path fill="none" stroke="#231F20" stroke-width="0.5" stroke-miterlimit="3.8637" d="M949.676,623.271l3.421-3.374
	 M951.497,625.166l3.404-3.431 M953.371,625.162l1.562-1.551 M949.676,621.397l1.521-1.501 M949.635,625.117l5.179-5.203"/>
<polygon fill="none" stroke="#231F20" stroke-width="0.5" stroke-miterlimit="3.8637" points="606.072,213.85 611.375,213.85 
	611.375,219.16 606.072,219.16 606.072,213.85 "/>
<path fill="none" stroke="#231F20" stroke-width="0.5" stroke-miterlimit="3.8637" d="M606.132,217.234l3.421-3.375 M607.952,219.13
	l3.403-3.431 M609.826,219.126l1.562-1.551 M606.132,215.36l1.52-1.501 M606.089,219.079l5.181-5.201"/>
<polygon fill="#231F20" stroke="#231F20" stroke-width="0.5" stroke-miterlimit="3.8637" points="585.389,565.771 590.715,565.771 
	590.715,571.023 585.389,571.023 585.389,565.771 "/>
<path fill="#231F20" stroke="#231F20" stroke-width="0.5" stroke-miterlimit="3.8637" d="M586.976,568.434
	c0-0.604,0.49-1.096,1.095-1.096c0.604,0,1.095,0.492,1.095,1.096s-0.49,1.095-1.095,1.095
	C587.466,569.528,586.976,569.037,586.976,568.434L586.976,568.434z"/>
<polygon fill="#231F20" stroke="#231F20" stroke-width="0.5" stroke-miterlimit="3.8637" points="585.553,565.88 590.57,565.88 
	590.57,567.229 585.553,567.229 585.553,565.88 "/>
<polygon fill="#231F20" stroke="#231F20" stroke-width="0.5" stroke-miterlimit="3.8637" points="585.754,569.62 590.497,569.62 
	590.497,571.006 585.754,571.006 585.754,569.62 "/>
<polygon fill="#231F20" stroke="#231F20" stroke-width="0.5" stroke-miterlimit="3.8637" points="589.201,566.573 590.606,566.573 
	590.606,569.929 589.201,569.929 589.201,566.573 "/>
<polygon fill="#231F20" stroke="#231F20" stroke-width="0.5" stroke-miterlimit="3.8637" points="585.553,567.12 586.932,567.12 
	586.932,569.577 585.553,569.577 585.553,567.12 "/>
<polygon fill="#231F20" stroke="#231F20" stroke-width="0.5" stroke-miterlimit="3.8637" points="586.903,567.175 587.304,567.175 
	587.304,567.43 586.903,567.43 586.903,567.175 "/>
<polygon fill="#231F20" stroke="#231F20" stroke-width="0.5" stroke-miterlimit="3.8637" points="588.91,567.12 589.22,567.12 
	589.22,567.559 588.91,567.559 588.91,567.12 "/>
<polygon fill="#231F20" stroke="#231F20" stroke-width="0.5" stroke-miterlimit="3.8637" points="588.928,569.327 589.111,569.327 
	589.111,569.585 588.928,569.585 588.928,569.327 "/>
<polygon fill="#231F20" stroke="#231F20" stroke-width="0.5" stroke-miterlimit="3.8637" points="586.903,569.292 587.213,569.292 
	587.213,569.601 586.903,569.601 586.903,569.292 "/>
<polygon fill="none" stroke="#231F20" stroke-width="0.5" stroke-miterlimit="3.8637" points="543.552,218.853 548.854,218.853 
	548.854,224.165 543.552,224.165 543.552,218.853 "/>
<path fill="none" stroke="#231F20" stroke-width="0.5" stroke-miterlimit="3.8637" d="M543.612,222.239l3.42-3.375 M545.432,224.133
	l3.404-3.431 M547.306,224.129l1.562-1.55 M543.612,220.365l1.521-1.501 M543.57,224.083l5.18-5.202"/>
<polygon fill="#231F20" stroke="#231F20" stroke-width="0.5" stroke-miterlimit="3.8637" points="490.382,210.75 495.761,210.75 
	495.761,216.13 490.382,216.13 490.382,210.75 "/>
<polygon fill="#231F20" stroke="#231F20" stroke-width="0.5" stroke-miterlimit="3.8637" points="524.909,218.256 530.289,218.256 
	530.289,223.634 524.909,223.634 524.909,218.256 "/>
<polygon fill="#231F20" stroke="#231F20" stroke-width="0.5" stroke-miterlimit="3.8637" points="549.93,224.261 555.309,224.261 
	555.309,229.64 549.93,229.64 549.93,224.261 "/>
<polygon fill="#231F20" stroke="#231F20" stroke-width="0.5" stroke-miterlimit="3.8637" points="604.347,234.394 609.727,234.394 
	609.727,239.772 604.347,239.772 604.347,234.394 "/>
<polygon fill="#231F20" stroke="#231F20" stroke-width="0.5" stroke-miterlimit="3.8637" points="711.056,226.388 716.435,226.388 
	716.435,231.767 711.056,231.767 711.056,226.388 "/>
<polygon fill="#231F20" stroke="#231F20" stroke-width="0.5" stroke-miterlimit="3.8637" points="739.577,198.991 744.958,198.991 
	744.958,204.371 739.577,204.371 739.577,198.991 "/>
<polygon fill="#231F20" stroke="#231F20" stroke-width="0.5" stroke-miterlimit="3.8637" points="757.718,245.152 763.097,245.152 
	763.097,250.531 757.718,250.531 757.718,245.152 "/>
<polygon fill="#231F20" stroke="#231F20" stroke-width="0.5" stroke-miterlimit="3.8637" points="668.146,139.318 673.527,139.318 
	673.527,144.699 668.146,144.699 668.146,139.318 "/>
<polygon fill="#231F20" stroke="#231F20" stroke-width="0.5" stroke-miterlimit="3.8637" points="809.758,249.906 815.139,249.906 
	815.139,255.285 809.758,255.285 809.758,249.906 "/>
<polygon fill="#231F20" stroke="#231F20" stroke-width="0.5" stroke-miterlimit="3.8637" points="840.032,258.162 845.411,258.162 
	845.411,263.541 840.032,263.541 840.032,258.162 "/>
<polygon fill="#231F20" stroke="#231F20" stroke-width="0.5" stroke-miterlimit="3.8637" points="769.728,341.478 775.106,341.478 
	775.106,346.857 769.728,346.857 769.728,341.478 "/>
<polygon fill="none" stroke="#231F20" stroke-width="0.5" stroke-miterlimit="3.8637" points="761.468,190.799 766.771,190.799 
	766.771,196.11 761.468,196.11 761.468,190.799 "/>
<path fill="none" stroke="#231F20" stroke-width="0.5" stroke-miterlimit="3.8637" d="M761.528,194.184l3.42-3.375 M763.35,196.079
	l3.403-3.431 M765.224,196.075l1.56-1.55 M761.528,192.31l1.521-1.501 M761.487,196.029l5.178-5.202"/>
<polygon fill="none" stroke="#231F20" stroke-width="0.5" stroke-miterlimit="3.8637" points="933.354,116.74 938.656,116.74 
	938.656,122.052 933.354,122.052 933.354,116.74 "/>
<path fill="none" stroke="#231F20" stroke-width="0.5" stroke-miterlimit="3.8637" d="M933.414,120.125l3.421-3.375
	 M935.235,122.021l3.403-3.431 M937.107,122.017l1.563-1.55 M933.414,118.251l1.521-1.5 M933.371,121.971l5.18-5.202"/>
<polygon fill="#231F20" stroke="#231F20" stroke-width="0.5" stroke-miterlimit="3.8637" points="966.508,592.05 971.886,592.05 
	971.886,597.43 966.508,597.43 966.508,592.05 "/>
<polygon fill="#231F20" stroke="#231F20" stroke-width="0.5" stroke-miterlimit="3.8637" points="315.565,573.833 320.945,573.833 
	320.945,579.212 315.565,579.212 315.565,573.833 "/>
<polygon fill="none" stroke="#231F20" stroke-width="0.5" stroke-miterlimit="3.8637" points="180.497,299.593 182.743,308.599 
	178.251,308.599 180.497,299.593 "/>
<polygon fill="#231F20" stroke="#231F20" stroke-width="0.5" stroke-miterlimit="3.8637" points="246.011,246.95 251.39,246.95 
	251.39,252.329 246.011,252.329 246.011,246.95 "/>
<path fill="none" stroke="#231F20" stroke-width="0.5" stroke-miterlimit="3.8637" d="M177.561,232.252
	c0-0.829,0.672-1.501,1.502-1.501c0.828,0,1.501,0.672,1.501,1.501c0,0.829-0.673,1.5-1.501,1.5
	C178.233,233.752,177.561,233.081,177.561,232.252L177.561,232.252z"/>
<path fill="none" stroke="#231F20" stroke-width="0.5" stroke-miterlimit="3.8637" d="M176.56,232.252
	c0-1.382,1.121-2.502,2.503-2.502c1.381,0,2.501,1.12,2.501,2.502c0,1.382-1.12,2.501-2.501,2.501
	C177.681,234.753,176.56,233.634,176.56,232.252L176.56,232.252z M176.373,229.562h5.378v5.379h-5.378V229.562L176.373,229.562z"/>
<polygon fill="#231F20" stroke="#231F20" stroke-width="0.5" stroke-miterlimit="3.8637" points="151.613,137.955 153.859,146.961 
	149.367,146.961 151.613,137.955 "/>
<polygon fill="#231F20" stroke="#231F20" stroke-width="0.5" stroke-miterlimit="3.8637" points="222.788,65.435 225.033,74.442 
	220.542,74.442 222.788,65.435 "/>
<polygon fill="#231F20" stroke="#231F20" stroke-width="0.5" stroke-miterlimit="3.8637" points="161.929,298.881 164.174,307.888 
	159.684,307.888 161.929,298.881 "/>
<polygon fill="none" stroke="#231F20" stroke-width="0.5" stroke-miterlimit="3.8637" points="193.076,299.709 195.321,308.717 
	190.829,308.717 193.076,299.709 "/>
<polygon fill="#231F20" stroke="#231F20" stroke-width="0.5" stroke-miterlimit="3.8637" points="146.916,331.907 149.163,340.914 
	144.671,340.914 146.916,331.907 "/>
<polygon fill="#231F20" stroke="#231F20" stroke-width="0.5" stroke-miterlimit="3.8637" points="233.125,390.237 235.37,399.244 
	230.879,399.244 233.125,390.237 "/>
<polygon fill="#231F20" stroke="#231F20" stroke-width="0.5" stroke-miterlimit="3.8637" points="190.127,461.893 192.373,470.9 
	187.882,470.9 190.127,461.893 "/>
<polygon fill="none" stroke="#231F20" stroke-width="0.5" stroke-miterlimit="3.8637" points="314.386,687.23 316.632,696.236 
	312.141,696.236 314.386,687.23 "/>
<polygon fill="#231F20" stroke="#231F20" stroke-width="0.5" stroke-miterlimit="3.8637" points="297.192,655.24 299.438,664.246 
	294.946,664.246 297.192,655.24 "/>
<polygon fill="#231F20" stroke="#231F20" stroke-width="0.5" stroke-miterlimit="3.8637" points="497.216,424.55 499.462,433.559 
	494.971,433.559 497.216,424.55 "/>
<polygon fill="none" stroke="#231F20" stroke-width="0.5" stroke-miterlimit="3.8637" points="534.403,299.518 536.648,308.524 
	532.158,308.524 534.403,299.518 "/>
<polygon fill="#231F20" stroke="#231F20" stroke-width="0.5" stroke-miterlimit="3.8637" points="466.057,290.826 468.303,299.832 
	463.811,299.832 466.057,290.826 "/>
<polygon fill="#231F20" stroke="#231F20" stroke-width="0.5" stroke-miterlimit="3.8637" points="498.459,281.555 500.706,290.561 
	496.214,290.561 498.459,281.555 "/>
<polygon fill="#231F20" stroke="#231F20" stroke-width="0.5" stroke-miterlimit="3.8637" points="547.144,302.364 549.39,311.371 
	544.898,311.371 547.144,302.364 "/>
<polygon fill="none" stroke="#231F20" stroke-width="0.5" stroke-miterlimit="3.8637" points="514.112,206.623 516.357,215.63 
	511.866,215.63 514.112,206.623 "/>
<polygon fill="#231F20" stroke="#231F20" stroke-width="0.5" stroke-miterlimit="3.8637" points="518.776,194.428 521.022,203.434 
	516.531,203.434 518.776,194.428 "/>
<polygon fill="none" stroke="#231F20" stroke-width="0.5" stroke-miterlimit="3.8637" points="521.087,204.904 523.332,213.911 
	518.841,213.911 521.087,204.904 "/>
<polygon fill="#231F20" stroke="#231F20" stroke-width="0.5" stroke-miterlimit="3.8637" points="574.648,239.272 576.895,248.279 
	572.404,248.279 574.648,239.272 "/>
<polygon fill="#231F20" stroke="#231F20" stroke-width="0.5" stroke-miterlimit="3.8637" points="650.754,312.145 653.001,321.15 
	648.51,321.15 650.754,312.145 "/>
<polygon fill="none" stroke="#231F20" stroke-width="0.5" stroke-miterlimit="3.8637" points="657.195,318.744 659.438,327.751 
	654.949,327.751 657.195,318.744 "/>
<polygon fill="#231F20" stroke="#231F20" stroke-width="0.5" stroke-miterlimit="3.8637" points="652.257,268.485 654.502,277.492 
	650.011,277.492 652.257,268.485 "/>
<polygon fill="#231F20" stroke="#231F20" stroke-width="0.5" stroke-miterlimit="3.8637" points="635.242,310.518 637.488,319.524 
	632.998,319.524 635.242,310.518 "/>
<polygon fill="#231F20" stroke="#231F20" stroke-width="0.5" stroke-miterlimit="3.8637" points="649.379,330.159 651.623,339.166 
	647.135,339.166 649.379,330.159 "/>
<polygon fill="#231F20" stroke="#231F20" stroke-width="0.5" stroke-miterlimit="3.8637" points="660.263,337.789 662.509,346.797 
	658.017,346.797 660.263,337.789 "/>
<polygon fill="#231F20" stroke="#231F20" stroke-width="0.5" stroke-miterlimit="3.8637" points="676.776,349.173 679.022,358.18 
	674.53,358.18 676.776,349.173 "/>
<polygon fill="none" stroke="#231F20" stroke-width="0.5" stroke-miterlimit="3.8637" points="650.209,158.199 652.455,167.206 
	647.963,167.206 650.209,158.199 "/>
<polygon fill="#231F20" stroke="#231F20" stroke-width="0.5" stroke-miterlimit="3.8637" points="660.9,156.057 663.146,165.063 
	658.653,165.063 660.9,156.057 "/>
<polygon fill="none" stroke="#231F20" stroke-width="0.5" stroke-miterlimit="3.8637" points="683.201,131.762 685.445,140.77 
	680.955,140.77 683.201,131.762 "/>
<polygon fill="none" stroke="#231F20" stroke-width="0.5" stroke-miterlimit="3.8637" points="698.487,141.219 700.733,150.226 
	696.244,150.226 698.487,141.219 "/>
<polygon fill="#231F20" stroke="#231F20" stroke-width="0.5" stroke-miterlimit="3.8637" points="657.033,194.396 659.278,203.402 
	654.787,203.402 657.033,194.396 "/>
<polygon fill="#231F20" stroke="#231F20" stroke-width="0.5" stroke-miterlimit="3.8637" points="711.627,162.855 713.873,171.86 
	709.381,171.86 711.627,162.855 "/>
<polygon fill="#231F20" stroke="#231F20" stroke-width="0.5" stroke-miterlimit="3.8637" points="746.554,240.711 748.798,249.718 
	744.307,249.718 746.554,240.711 "/>
<polygon fill="#231F20" stroke="#231F20" stroke-width="0.5" stroke-miterlimit="3.8637" points="899.921,185.577 902.168,194.583 
	897.675,194.583 899.921,185.577 "/>
<polygon fill="#231F20" stroke="#231F20" stroke-width="0.5" stroke-miterlimit="3.8637" points="822.432,418.55 824.678,427.556 
	820.188,427.556 822.432,418.55 "/>
<polygon fill="none" stroke="#231F20" stroke-width="0.5" stroke-miterlimit="3.8637" points="703.375,163.868 705.619,172.873 
	701.129,172.873 703.375,163.868 "/>
<polygon fill="#231F20" stroke="#231F20" stroke-width="0.5" stroke-miterlimit="3.8637" points="212.05,360.947 217.236,360.947 
	217.236,366.077 212.05,366.077 212.05,360.947 "/>
<polygon fill="#231F20" stroke="#231F20" stroke-width="0.5" stroke-miterlimit="3.8637" points="277.101,450.269 282.286,450.269 
	282.286,455.398 277.101,455.398 277.101,450.269 "/>
<polygon fill="#231F20" stroke="#231F20" stroke-width="0.5" stroke-miterlimit="3.8637" points="520.242,415.429 525.427,415.429 
	525.427,420.56 520.242,420.56 520.242,415.429 "/>
<path fill="none" stroke="#231F20" stroke-width="0.5" stroke-miterlimit="3.8637" d="M568.14,556.256c0-0.83,0.672-1.5,1.501-1.5
	c0.83,0,1.501,0.67,1.501,1.5s-0.671,1.502-1.501,1.502C568.813,557.758,568.14,557.086,568.14,556.256L568.14,556.256z"/>
<path fill="none" stroke="#231F20" stroke-width="0.5" stroke-miterlimit="3.8637" d="M567.139,556.256
	c0-1.381,1.121-2.501,2.502-2.501c1.381,0,2.502,1.12,2.502,2.501s-1.121,2.502-2.502,2.502
	C568.259,558.758,567.139,557.637,567.139,556.256L567.139,556.256z M566.952,553.565h5.379v5.381h-5.379V553.565L566.952,553.565z"
	/>
<polygon fill="#231F20" stroke="#231F20" stroke-width="0.5" stroke-miterlimit="3.8637" points="339.796,540.173 342.617,534.717 
	345.541,540.173 339.796,540.173 "/>
<polygon fill="#231F20" stroke="#231F20" stroke-width="0.5" stroke-miterlimit="3.8637" points="290.257,540.173 293.077,534.717 
	296.002,540.173 290.257,540.173 "/>
<polygon fill="#231F20" stroke="#231F20" stroke-width="0.5" stroke-miterlimit="3.8637" points="214.876,287.676 217.696,282.221 
	220.621,287.676 214.876,287.676 "/>
<polygon fill="#231F20" stroke="#231F20" stroke-width="0.5" stroke-miterlimit="3.8637" points="448.059,422.783 450.88,417.328 
	453.805,422.783 448.059,422.783 "/>
<polygon fill="#231F20" stroke="#231F20" stroke-width="0.5" stroke-miterlimit="3.8637" points="459.067,334.714 461.889,329.258 
	464.814,334.714 459.067,334.714 "/>
<polygon fill="#231F20" stroke="#231F20" stroke-width="0.5" stroke-miterlimit="3.8637" points="504.104,220.624 506.924,215.168 
	509.849,220.624 504.104,220.624 "/>
<path fill="none" stroke="#231F20" stroke-width="0.5" stroke-miterlimit="3.8637" d="M609.041,427.766
	c0-1.554,1.258-2.812,2.813-2.812c1.553,0,2.813,1.258,2.813,2.812s-1.26,2.812-2.813,2.812
	C610.299,430.578,609.041,429.32,609.041,427.766L609.041,427.766z"/>
<polygon fill="#231F20" stroke="#231F20" stroke-width="0.5" stroke-miterlimit="3.8637" points="589.67,246.144 592.492,240.688 
	595.416,246.144 589.67,246.144 "/>
<polygon fill="none" stroke="#231F20" stroke-width="0.5" stroke-miterlimit="3.8637" points="536.127,286.182 538.949,280.725 
	541.874,286.182 536.127,286.182 "/>
<path fill="none" stroke="#231F20" stroke-width="0.5" stroke-miterlimit="3.8637" d="M185.389,98.372
	c0-1.553,1.26-2.812,2.813-2.812s2.813,1.259,2.813,2.812c0,1.554-1.26,2.813-2.813,2.813S185.389,99.925,185.389,98.372
	L185.389,98.372z"/>
<polygon fill="#231F20" stroke="#231F20" stroke-width="0.5" stroke-miterlimit="3.8637" points="602.681,227.129 605.502,221.673 
	608.427,227.129 602.681,227.129 "/>
<path fill="none" stroke="#231F20" stroke-width="0.5" stroke-miterlimit="3.8637" d="M575.336,568.174
	c0-1.554,1.258-2.813,2.811-2.813c1.555,0,2.814,1.259,2.814,2.813s-1.259,2.811-2.814,2.811
	C576.595,570.984,575.336,569.728,575.336,568.174L575.336,568.174z"/>
<polygon fill="#231F20" stroke="#231F20" stroke-width="0.5" stroke-miterlimit="3.8637" points="562.463,492.44 571.746,492.44 
	571.746,496.361 562.463,496.361 562.463,492.44 "/>
<path fill="none" stroke="#231F20" stroke-width="0.5" stroke-miterlimit="3.8637" d="M810.726,180.469
	c0-1.554,1.259-2.813,2.813-2.813s2.812,1.259,2.812,2.813c0,1.553-1.258,2.813-2.812,2.813S810.726,182.022,810.726,180.469
	L810.726,180.469z"/>
<polygon fill="#231F20" stroke="#231F20" stroke-width="0.5" stroke-miterlimit="3.8637" points="876.922,554.283 879.744,548.828 
	882.668,554.283 876.922,554.283 "/>
<polygon fill="#231F20" stroke="#231F20" stroke-width="0.5" stroke-miterlimit="3.8637" points="761.331,372.14 764.152,366.684 
	767.078,372.14 761.331,372.14 "/>
<path fill="none" stroke="#231F20" stroke-width="0.5" stroke-miterlimit="3.8637" d="M819.722,413.851l6.738-0.003l-0.155,0.003
	c0,0,1.25-0.016,1.307,1.114l-0.006-0.064l0.021,1.243c0,0,0.121,0.967-1.222,1.044l-0.031,0.006l-6.584-0.01
	c0,0-1.315,0.15-1.416-0.988v-0.28v-0.966c0,0-0.106-1.27,1.629-1.099 M850.744,460.888l6.74-0.002l-0.156,0.002
	c0,0,1.251-0.016,1.31,1.114l-0.008-0.064l0.021,1.243c0,0,0.121,0.968-1.222,1.044l-0.031,0.006l-6.584-0.01
	c0,0-1.314,0.15-1.415-0.987v-0.281v-0.966c0,0-0.107-1.271,1.628-1.099 M834.734,435.369l6.738-0.003l-0.156,0.003
	c0,0,1.251-0.016,1.31,1.112l-0.008-0.063l0.021,1.243c0,0,0.119,0.968-1.222,1.044l-0.031,0.006l-6.584-0.01
	c0,0-1.315,0.15-1.417-0.988v-0.279v-0.967c0,0-0.107-1.271,1.628-1.098"/>
<polygon fill="#231F20" stroke="#231F20" stroke-width="0.5" stroke-miterlimit="3.8637" points="598.104,273.728 603.484,273.728 
	603.484,279.106 598.104,279.106 598.104,273.728 "/>
<polygon fill="#231F20" stroke="#231F20" stroke-width="0.5" stroke-miterlimit="3.8637" points="228.136,217.122 230.957,211.665 
	233.881,217.122 228.136,217.122 "/>
<path fill="none" stroke="#231F20" stroke-width="0.5" stroke-miterlimit="3.8637" d="M182.077,237.809
	c0-0.829,0.672-1.501,1.501-1.501c0.829,0,1.501,0.672,1.501,1.501c0,0.829-0.672,1.501-1.501,1.501
	C182.749,239.31,182.077,238.638,182.077,237.809L182.077,237.809z"/>
<path fill="none" stroke="#231F20" stroke-width="0.5" stroke-miterlimit="3.8637" d="M181.076,237.809
	c0-1.382,1.119-2.501,2.501-2.501c1.382,0,2.502,1.119,2.502,2.501c0,1.382-1.121,2.502-2.502,2.502
	C182.195,240.311,181.076,239.19,181.076,237.809L181.076,237.809z M180.889,235.12h5.378v5.379h-5.378V235.12L180.889,235.12z"/>
<polygon fill="#231F20" stroke="#231F20" stroke-width="0.5" stroke-miterlimit="3.8637" points="326.959,192.837 329.781,187.382 
	332.706,192.837 326.959,192.837 "/>
<polygon fill="#231F20" stroke="#231F20" stroke-width="0.5" stroke-miterlimit="3.8637" points="656.772,274.042 659.017,283.049 
	654.525,283.049 656.772,274.042 "/>
<polygon fill="#231F20" stroke="#231F20" stroke-width="0.5" stroke-miterlimit="3.8637" points="661.549,199.953 663.793,208.96 
	659.302,208.96 661.549,199.953 "/>
<polygon fill="#231F20" stroke="#231F20" stroke-width="0.5" stroke-miterlimit="3.8637" points="216.565,366.504 221.75,366.504 
	221.75,371.634 216.565,371.634 216.565,366.504 "/>
<path fill="#FFEB94" stroke="#231F20" stroke-width="0.5" stroke-miterlimit="3.8637" d="M217.455,369.089
	c0-0.998,0.82-1.81,1.831-1.81c1.009,0,1.829,0.812,1.829,1.81c0,1-0.82,1.81-1.829,1.81
	C218.275,370.898,217.455,370.088,217.455,369.089L217.455,369.089z"/>
<polygon fill="#231F20" stroke="#231F20" stroke-width="0.5" stroke-miterlimit="3.8637" points="281.616,455.824 286.803,455.824 
	286.803,460.956 281.616,460.956 281.616,455.824 "/>
<path fill="#F8BFC6" stroke="#231F20" stroke-width="0.5" stroke-miterlimit="3.8637" d="M282.507,458.41c0-1,0.819-1.81,1.829-1.81
	c1.011,0,1.83,0.81,1.83,1.81c0,0.999-0.819,1.81-1.83,1.81C283.326,460.22,282.507,459.409,282.507,458.41L282.507,458.41z"/>
<polygon fill="#231F20" stroke="#231F20" stroke-width="0.5" stroke-miterlimit="3.8637" points="524.756,420.986 529.943,420.986 
	529.943,426.116 524.756,426.116 524.756,420.986 "/>
<path fill="#F8BFC6" stroke="#231F20" stroke-width="0.5" stroke-miterlimit="3.8637" d="M525.647,423.571
	c0-0.999,0.819-1.81,1.831-1.81c1.009,0,1.828,0.812,1.828,1.81c0,1.001-0.819,1.811-1.828,1.811
	C526.467,425.382,525.647,424.573,525.647,423.571L525.647,423.571z"/>
<polygon fill="#231F20" stroke="#231F20" stroke-width="0.5" stroke-miterlimit="3.8637" points="227.213,357.026 224.145,351.769 
	230.281,351.769 227.213,357.026 "/>
<polygon fill="#231F20" stroke="#231F20" stroke-width="0.5" stroke-miterlimit="3.8637" points="904.405,468.184 901.335,462.925 
	907.474,462.925 904.405,468.184 "/>
<polygon fill="#231F20" stroke="#231F20" stroke-width="0.5" stroke-miterlimit="3.8637" points="916.415,410.387 913.347,405.129 
	919.483,405.129 916.415,410.387 "/>
<polygon fill="#231F20" stroke="#231F20" stroke-width="0.5" stroke-miterlimit="3.8637" points="1043.682,556.614 
	1040.611,551.359 1046.748,551.359 1043.682,556.614 "/>
<path fill="none" stroke="#231F20" stroke-width="0.5" stroke-miterlimit="3.8637" d="M572.655,561.814
	c0-0.828,0.671-1.501,1.501-1.501s1.502,0.673,1.502,1.501c0,0.829-0.672,1.501-1.502,1.501S572.655,562.644,572.655,561.814
	L572.655,561.814z"/>
<line fill="none" stroke="#231F20" stroke-width="0.5" stroke-miterlimit="3.8637" stroke-dasharray="27.6413,4.6069,4.6069,4.6069" x1="254.953" y1="569.85" x2="252.778" y2="575.201"/>
<line fill="none" stroke="#231F20" stroke-width="0.5" stroke-miterlimit="3.8637" stroke-dasharray="27.6413,4.6069,4.6069,4.6069" x1="254.42" y1="568.646" x2="252.245" y2="573.997"/>
<line fill="none" stroke="#231F20" stroke-width="0.5" stroke-miterlimit="3.8637" stroke-dasharray="27.6413,4.6069,4.6069,4.6069" x1="255.561" y1="571.016" x2="253.385" y2="576.366"/>
<polygon fill="none" stroke="#231F20" stroke-width="0.5" stroke-miterlimit="3.8637" points="256.077,572.483 253.865,567.617 
	251.728,572.657 253.94,577.523 256.077,572.483 "/>
<polygon fill="none" stroke="#231F20" stroke-width="0.5" stroke-miterlimit="3.8637" points="561.3,235.377 564.122,229.921 
	567.047,235.377 561.3,235.377 "/>
<path fill="none" stroke="#231F20" stroke-width="0.5" stroke-miterlimit="3.8637" d="M462.744,312.945
	c0-1.56,1.265-2.822,2.825-2.822c1.557,0,2.822,1.263,2.822,2.822s-1.266,2.824-2.822,2.824
	C464.009,315.77,462.744,314.505,462.744,312.945L462.744,312.945z"/>
<path fill="none" stroke="#231F20" stroke-width="0.5" stroke-miterlimit="3.8637" d="M520.29,310.694
	c0-1.56,1.264-2.824,2.823-2.824s2.824,1.264,2.824,2.824s-1.264,2.824-2.824,2.824S520.29,312.253,520.29,310.694L520.29,310.694z"
	/>
<path fill="none" stroke="#231F20" stroke-width="0.5" stroke-miterlimit="3.8637" d="M609.36,306.69
	c0-1.559,1.264-2.823,2.824-2.823s2.823,1.264,2.823,2.823c0,1.56-1.263,2.824-2.823,2.824S609.36,308.25,609.36,306.69
	L609.36,306.69z"/>
<polygon fill="#231F20" stroke="#231F20" stroke-width="0.5" stroke-miterlimit="3.8637" points="732.746,152.378 732.746,146.255 
	734.291,144.442 735.819,146.256 735.815,152.378 732.746,152.378 "/>
<polygon fill="none" stroke="#231F20" stroke-width="0.5" stroke-miterlimit="3.8637" points="542.997,232.104 542.997,236.858 
	538.244,236.858 538.244,232.104 542.997,232.104 "/>
<polygon fill="#231F20" stroke="#231F20" stroke-width="0.5" stroke-miterlimit="3.8637" points="537.875,231.712 539.613,230.524 
	544.611,230.563 544.648,236.027 543.317,237.225 543.285,231.712 537.875,231.712 "/>
<polygon fill="none" stroke="#231F20" stroke-width="0.5" stroke-miterlimit="3.8637" points="584.655,222.222 584.655,226.975 
	579.901,226.975 579.902,222.222 584.655,222.222 "/>
<polygon fill="#231F20" stroke="#231F20" stroke-width="0.5" stroke-miterlimit="3.8637" points="579.533,221.829 581.271,220.64 
	586.269,220.679 586.308,226.145 584.974,227.343 584.944,221.829 579.533,221.829 "/>
<polygon fill="none" stroke="#231F20" stroke-width="0.5" stroke-miterlimit="3.8637" points="667.971,185.192 667.971,189.946 
	663.218,189.946 663.218,185.192 667.971,185.192 "/>
<polygon fill="#231F20" stroke="#231F20" stroke-width="0.5" stroke-miterlimit="3.8637" points="662.849,184.8 664.586,183.611 
	669.582,183.65 669.621,189.116 668.289,190.313 668.26,184.8 662.849,184.8 "/>
<path fill="none" stroke="#231F20" stroke-width="0.5" stroke-miterlimit="3.8637" d="M569.232,478.459l-1.191,0.792l0.282,1.403
	l-1.403-0.28l-0.793,1.192l-0.792-1.192l-1.404,0.28l0.281-1.403l-1.192-0.792l1.192-0.793l-0.281-1.405l1.404,0.283l0.792-1.19
	l0.793,1.19l1.403-0.283l-0.282,1.405L569.232,478.459L569.232,478.459z M564.396,478.459c0-0.957,0.775-1.731,1.731-1.731
	c0.956,0,1.731,0.774,1.731,1.731c0,0.954-0.775,1.729-1.731,1.729C565.171,480.188,564.396,479.413,564.396,478.459
	L564.396,478.459z"/>
<path fill="none" stroke="#231F20" stroke-width="0.5" stroke-miterlimit="3.8637" d="M273.294,422.368l-1.191,0.792l0.282,1.404
	l-1.404-0.283l-0.792,1.193l-0.793-1.193l-1.402,0.283l0.283-1.404l-1.193-0.792l1.193-0.792l-0.283-1.405l1.402,0.283l0.793-1.191
	l0.792,1.191l1.404-0.283l-0.282,1.405L273.294,422.368L273.294,422.368z M268.458,422.368c0-0.957,0.774-1.73,1.73-1.73
	c0.956,0,1.73,0.774,1.73,1.73s-0.775,1.731-1.73,1.731C269.232,424.1,268.458,423.325,268.458,422.368L268.458,422.368z"/>
<path fill="none" stroke="#231F20" stroke-width="0.5" stroke-miterlimit="3.8637" d="M155.636,234.904
	c0-1.56,1.265-2.823,2.823-2.823c1.56,0,2.825,1.264,2.825,2.823c0,1.559-1.265,2.823-2.825,2.823
	C156.9,237.727,155.636,236.462,155.636,234.904L155.636,234.904z"/>
<path fill="none" stroke="#231F20" stroke-width="0.5" stroke-miterlimit="3.8637" d="M213.435,317.275
	c0-1.56,1.262-2.824,2.822-2.824c1.56,0.001,2.823,1.266,2.823,2.824c0,1.559-1.263,2.824-2.823,2.824
	C214.696,320.099,213.435,318.834,213.435,317.275L213.435,317.275z"/>
<polygon fill="none" stroke="#231F20" stroke-width="0.5" stroke-miterlimit="3.8637" points="567.674,241.164 567.674,245.924 
	562.911,245.924 562.911,241.164 567.674,241.164 "/>
<line fill="none" stroke="#231F20" stroke-width="0.5" stroke-miterlimit="3.8637" x1="567.478" y1="241.182" x2="569.041" y2="239.656"/>
<polyline fill="none" stroke="#231F20" stroke-width="0.5" stroke-miterlimit="3.8637" points="567.802,245.959 569.196,244.721 
	569.196,239.617 564.552,239.617 562.758,241.009 "/>
<polygon fill="#B00069" stroke="#B00069" stroke-width="0.75" stroke-miterlimit="3.8637" points="254.201,555.006 263.483,555.006 
	263.483,558.927 254.201,558.927 254.201,555.006 "/>
<polygon fill="#B00069" stroke="#B00069" stroke-width="0.75" stroke-miterlimit="3.8637" points="233.799,529.984 243.082,529.984 
	243.082,533.908 233.799,533.908 233.799,529.984 "/>
<path fill="none" stroke="#B00069" stroke-width="0.75" stroke-linejoin="round" stroke-miterlimit="3.8637" d="M215.392,505.239
	c0-1.548,1.252-2.8,2.797-2.8c1.544,0,2.797,1.252,2.797,2.8c0,1.542-1.253,2.795-2.797,2.795
	C216.645,508.034,215.392,506.781,215.392,505.239L215.392,505.239z"/>
<polygon fill="#B00069" stroke="#B00069" stroke-width="0.75" stroke-miterlimit="3.8637" points="217.166,502.928 218.229,504.693 
	219.292,502.928 217.166,502.928 "/>
<polygon fill="#B00069" stroke="#B00069" stroke-width="0.75" stroke-miterlimit="3.8637" points="216.541,507.306 217.712,505.538 
	215.618,505.837 216.541,507.306 "/>
<polygon fill="#B00069" stroke="#B00069" stroke-width="0.75" stroke-miterlimit="3.8637" points="220.715,505.853 218.76,505.538 
	219.746,507.306 220.715,505.853 "/>
<path fill="none" stroke="#B00069" stroke-width="0.75" stroke-linejoin="round" stroke-miterlimit="3.8637" d="M138.01,314.79
	c0-1.544,1.253-2.797,2.798-2.797c1.544,0,2.797,1.253,2.797,2.797c0,1.545-1.253,2.798-2.797,2.798
	C139.263,317.588,138.01,316.335,138.01,314.79L138.01,314.79z"/>
<polygon fill="#B00069" stroke="#B00069" stroke-width="0.75" stroke-miterlimit="3.8637" points="139.784,312.481 140.846,314.248 
	141.91,312.481 139.784,312.481 "/>
<polygon fill="#B00069" stroke="#B00069" stroke-width="0.75" stroke-miterlimit="3.8637" points="139.157,316.859 140.33,315.091 
	138.235,315.389 139.157,316.859 "/>
<polygon fill="#B00069" stroke="#B00069" stroke-width="0.75" stroke-miterlimit="3.8637" points="143.333,315.404 141.378,315.091 
	142.364,316.859 143.333,315.404 "/>
<path fill="none" stroke="#B00069" stroke-width="0.75" stroke-miterlimit="3.8637" d="M531.629,262.19
	c0-1.096,0.888-1.986,1.985-1.986c1.098,0,1.986,0.89,1.986,1.986s-0.888,1.986-1.986,1.986
	C532.517,264.176,531.629,263.286,531.629,262.19L531.629,262.19z"/>
<path fill="none" stroke="#B00069" stroke-width="0.75" stroke-linejoin="round" stroke-miterlimit="3.8637" d="M303.641,228.223
	c0-1.545,1.251-2.797,2.796-2.797c1.545,0,2.797,1.252,2.797,2.797s-1.252,2.796-2.797,2.796
	C304.892,231.02,303.641,229.768,303.641,228.223L303.641,228.223z"/>
<polygon fill="#B00069" stroke="#B00069" stroke-width="0.75" stroke-miterlimit="3.8637" points="305.415,225.913 306.477,227.68 
	307.541,225.913 305.415,225.913 "/>
<polygon fill="#B00069" stroke="#B00069" stroke-width="0.75" stroke-miterlimit="3.8637" points="304.788,230.292 305.96,228.524 
	303.865,228.822 304.788,230.292 "/>
<polygon fill="#B00069" stroke="#B00069" stroke-width="0.75" stroke-miterlimit="3.8637" points="308.962,228.838 307.008,228.524 
	307.993,230.292 308.962,228.838 "/>
<path fill="none" stroke="#B00069" stroke-width="0.75" stroke-linejoin="round" stroke-miterlimit="3.8637" d="M162.529,216.714
	c0-1.545,1.253-2.797,2.796-2.797c1.546,0,2.798,1.252,2.798,2.797c0,1.544-1.252,2.798-2.798,2.798
	C163.782,219.512,162.529,218.258,162.529,216.714L162.529,216.714z"/>
<polygon fill="#B00069" stroke="#B00069" stroke-width="0.75" stroke-miterlimit="3.8637" points="164.303,214.404 165.366,216.171 
	166.429,214.404 164.303,214.404 "/>
<polygon fill="#B00069" stroke="#B00069" stroke-width="0.75" stroke-miterlimit="3.8637" points="163.677,218.782 164.85,217.015 
	162.755,217.312 163.677,218.782 "/>
<polygon fill="#B00069" stroke="#B00069" stroke-width="0.75" stroke-miterlimit="3.8637" points="167.852,217.329 165.897,217.015 
	166.883,218.782 167.852,217.329 "/>
<path fill="none" stroke="#B00069" stroke-width="0.75" stroke-linejoin="round" stroke-miterlimit="3.8637" d="M205.313,264.502
	c0-1.545,1.251-2.798,2.796-2.798c1.546,0,2.797,1.253,2.797,2.798c0,1.543-1.251,2.796-2.797,2.796
	C206.564,267.298,205.313,266.045,205.313,264.502L205.313,264.502z"/>
<polygon fill="#B00069" stroke="#B00069" stroke-width="0.75" stroke-miterlimit="3.8637" points="207.085,262.191 208.149,263.958 
	209.213,262.191 207.085,262.191 "/>
<polygon fill="#B00069" stroke="#B00069" stroke-width="0.75" stroke-miterlimit="3.8637" points="206.46,266.569 207.634,264.804 
	205.539,265.1 206.46,266.569 "/>
<polygon fill="#B00069" stroke="#B00069" stroke-width="0.75" stroke-miterlimit="3.8637" points="210.637,265.115 208.681,264.804 
	209.667,266.569 210.637,265.115 "/>
<polygon fill="#B00069" stroke="#B00069" stroke-width="0.75" stroke-miterlimit="3.8637" points="257.855,222.535 266.333,222.536 
	266.333,225.774 257.855,225.774 257.855,222.535 "/>
<path fill="none" stroke="#B00069" stroke-width="0.75" stroke-linejoin="round" stroke-miterlimit="3.8637" d="M227.08,143.156
	c0-1.545,1.252-2.797,2.797-2.797s2.798,1.252,2.798,2.797s-1.253,2.796-2.798,2.796S227.08,144.701,227.08,143.156L227.08,143.156z
	"/>
<polygon fill="#B00069" stroke="#B00069" stroke-width="0.75" stroke-miterlimit="3.8637" points="228.853,140.846 229.917,142.613 
	230.98,140.846 228.853,140.846 "/>
<polygon fill="#B00069" stroke="#B00069" stroke-width="0.75" stroke-miterlimit="3.8637" points="228.228,145.224 229.4,143.457 
	227.306,143.754 228.228,145.224 "/>
<polygon fill="#B00069" stroke="#B00069" stroke-width="0.75" stroke-miterlimit="3.8637" points="232.402,143.77 230.449,143.457 
	231.434,145.224 232.402,143.77 "/>
<polygon fill="#B00069" stroke="#B00069" stroke-width="0.75" stroke-miterlimit="3.8637" points="592.041,172.443 600.52,172.443 
	600.52,175.682 592.041,175.682 592.041,172.443 "/>
<polygon fill="#B00069" stroke="#B00069" stroke-width="0.75" stroke-miterlimit="3.8637" points="672.505,218.119 675.325,212.663 
	678.251,218.119 672.505,218.119 "/>
<polygon fill="#B00069" stroke="#B00069" stroke-width="0.75" stroke-miterlimit="3.8637" points="673.918,204.438 682.396,204.439 
	682.396,207.677 673.918,207.676 673.918,204.438 "/>
<polygon fill="#B00069" stroke="#B00069" stroke-width="0.75" stroke-miterlimit="3.8637" points="682.537,224.019 685.36,218.562 
	688.282,224.019 682.537,224.019 "/>
<polygon fill="#B00069" stroke="#B00069" stroke-width="0.75" stroke-miterlimit="3.8637" points="729.648,332.068 738.129,332.068 
	738.129,335.308 729.648,335.308 729.648,332.068 "/>
<polygon fill="none" stroke="#B00069" stroke-width="0.75" stroke-miterlimit="3.8637" points="587.786,531.022 593.088,531.022 
	593.088,536.334 587.786,536.334 587.786,531.022 "/>
<polygon fill="#231F20" stroke="#B00069" stroke-width="0.75" stroke-miterlimit="3.8637" points="588.113,531.153 590.412,533.515 
	592.805,531.153 588.113,531.153 "/>
<polygon fill="#231F20" stroke="#B00069" stroke-width="0.75" stroke-miterlimit="3.8637" points="592.82,536.314 590.428,533.937 
	588.067,536.314 592.82,536.314 "/>
<polygon fill="#B00069" stroke="#B00069" stroke-width="0.75" stroke-miterlimit="3.8637" points="588.176,531.153 590.474,533.515 
	592.867,531.153 588.176,531.153 "/>
<polygon fill="#B00069" stroke="#B00069" stroke-width="0.75" stroke-miterlimit="3.8637" points="592.882,536.314 590.49,533.937 
	588.129,536.314 592.882,536.314 "/>
<polygon fill="none" stroke="#B00069" stroke-width="0.75" stroke-miterlimit="3.8637" points="731.209,134.443 728.434,139.722 
	725.555,134.443 731.209,134.443 "/>
<polygon fill="none" stroke="#B00069" stroke-width="0.75" stroke-miterlimit="3.8637" points="728.441,135.046 727.062,137.229 
	729.905,137.229 728.441,135.046 "/>
<polygon fill="#B00069" stroke="#B00069" stroke-width="0.75" stroke-miterlimit="3.8637" points="725.641,134.583 728.646,134.659 
	727.19,137.23 725.641,134.583 "/>
<polygon fill="#B00069" stroke="#B00069" stroke-width="0.75" stroke-miterlimit="3.8637" points="729.66,137.264 728.174,134.646 
	730.957,134.677 729.66,137.264 "/>
<polygon fill="#B00069" stroke="#B00069" stroke-width="0.75" stroke-miterlimit="3.8637" points="727.05,137.115 729.862,137.115 
	728.518,139.586 727.05,137.115 "/>
<polygon fill="#B00069" stroke="#B00069" stroke-width="0.75" stroke-miterlimit="3.8637" points="845.179,188.024 848,182.567 
	850.924,188.024 845.179,188.024 "/>
<polygon fill="#B00069" stroke="#B00069" stroke-width="0.75" stroke-miterlimit="3.8637" points="823.249,290.432 831.729,290.432 
	831.729,293.671 823.249,293.671 823.249,290.432 "/>
<path fill="none" stroke="#B00069" stroke-width="0.75" stroke-miterlimit="3.8637" d="M571.151,485.784l6.74-0.004l-0.156,0.004
	c0,0,1.25-0.016,1.307,1.112l-0.006-0.064l0.021,1.242c0,0,0.121,0.968-1.221,1.044l-0.031,0.006l-6.584-0.008
	c0,0-1.315,0.148-1.417-0.989v-0.278v-0.968c0,0-0.107-1.271,1.63-1.097"/>
<path fill="none" stroke="#B00069" stroke-width="0.75" stroke-miterlimit="3.8637" d="M480.615,280.602
	c0-1.097,0.89-1.985,1.986-1.985c1.097,0,1.986,0.889,1.986,1.985c0,1.097-0.89,1.985-1.986,1.985
	C481.505,282.587,480.615,281.699,480.615,280.602L480.615,280.602z"/>
<polygon fill="#B00069" stroke="#B00069" stroke-width="0.75" stroke-miterlimit="3.8637" points="471.222,284.928 479.701,284.928 
	479.701,288.167 471.222,288.167 471.222,284.928 "/>
<path fill="none" stroke="#B00069" stroke-width="0.75" stroke-linejoin="round" stroke-miterlimit="3.8637" d="M481.807,288.667
	c0-1.546,1.253-2.797,2.798-2.797c1.544,0,2.797,1.251,2.797,2.797c0,1.545-1.253,2.796-2.797,2.796
	C483.06,291.463,481.807,290.212,481.807,288.667L481.807,288.667z"/>
<polygon fill="#B00069" stroke="#B00069" stroke-width="0.75" stroke-miterlimit="3.8637" points="483.58,286.358 484.643,288.125 
	485.707,286.358 483.58,286.358 "/>
<polygon fill="#B00069" stroke="#B00069" stroke-width="0.75" stroke-miterlimit="3.8637" points="482.954,290.736 484.127,288.968 
	482.032,289.265 482.954,290.736 "/>
<polygon fill="#B00069" stroke="#B00069" stroke-width="0.75" stroke-miterlimit="3.8637" points="487.129,289.281 485.175,288.968 
	486.16,290.736 487.129,289.281 "/>
<path fill="none" stroke="#B00069" stroke-width="0.75" stroke-miterlimit="3.8637" d="M817.846,387.955l6.738-0.002l-0.155,0.002
	c0,0,1.25-0.016,1.307,1.113l-0.006-0.063l0.021,1.245c0,0,0.121,0.966-1.222,1.042l-0.031,0.006l-6.584-0.007
	c0,0-1.314,0.149-1.416-0.991v-0.28v-0.967c0,0-0.107-1.269,1.629-1.098 M829.353,349.174l6.74-0.002l-0.155,0.002
	c0,0,1.251-0.016,1.308,1.113l-0.006-0.063l0.021,1.244c0,0,0.121,0.966-1.221,1.043l-0.033,0.006l-6.583-0.008
	c0,0-1.315,0.148-1.415-0.99v-0.28v-0.966c0,0-0.109-1.27,1.628-1.099"/>
<polygon fill="#B00069" stroke="#B00069" stroke-width="0.75" stroke-miterlimit="3.8637" points="947.148,545.275 955.626,545.275 
	955.626,548.514 947.148,548.514 947.148,545.275 "/>
<polygon fill="#B00069" stroke="#B00069" stroke-width="0.75" stroke-miterlimit="3.8637" points="832.168,262.582 834.988,257.125 
	837.912,262.582 832.168,262.582 "/>
<path fill="none" stroke="#B00069" stroke-width="0.75" stroke-miterlimit="3.8637" d="M262.363,534.927l6.74-0.002l-0.156,0.002
	c0,0,1.251-0.016,1.307,1.112l-0.006-0.063l0.021,1.243c0,0,0.119,0.968-1.222,1.044l-0.031,0.006l-6.584-0.01
	c0,0-1.315,0.15-1.417-0.987v-0.283v-0.964c0,0-0.106-1.271,1.629-1.099"/>
<polygon fill="#B00069" stroke="#B00069" stroke-width="0.75" stroke-miterlimit="3.8637" points="574.352,148.152 577.172,142.695 
	580.097,148.152 574.352,148.152 "/>
<polygon fill="none" stroke="#B00069" stroke-width="0.75" stroke-miterlimit="3.8637" points="566.815,155.801 564.04,161.079 
	561.162,155.801 566.815,155.801 "/>
<polygon fill="none" stroke="#B00069" stroke-width="0.75" stroke-miterlimit="3.8637" points="564.047,156.403 562.667,158.587 
	565.51,158.587 564.047,156.403 "/>
<polygon fill="#B00069" stroke="#B00069" stroke-width="0.75" stroke-miterlimit="3.8637" points="561.247,155.94 564.253,156.018 
	562.796,158.588 561.247,155.94 "/>
<polygon fill="#B00069" stroke="#B00069" stroke-width="0.75" stroke-miterlimit="3.8637" points="565.266,158.622 563.78,156.002 
	566.563,156.035 565.266,158.622 "/>
<polygon fill="#B00069" stroke="#B00069" stroke-width="0.75" stroke-miterlimit="3.8637" points="562.655,158.473 565.47,158.473 
	564.125,160.945 562.655,158.473 "/>
<polygon fill="#B00069" stroke="#B00069" stroke-width="0.75" stroke-miterlimit="3.8637" points="785.325,193.853 788.144,188.396 
	791.07,193.853 785.325,193.853 "/>
<path fill="none" stroke="#B00069" stroke-width="0.75" stroke-linejoin="round" stroke-miterlimit="3.8637" d="M945.665,600.972
	c0-1.545,1.255-2.799,2.799-2.799s2.796,1.254,2.796,2.799c0,1.543-1.252,2.795-2.796,2.795S945.665,602.515,945.665,600.972
	L945.665,600.972z"/>
<polygon fill="#B00069" stroke="#B00069" stroke-width="0.75" stroke-miterlimit="3.8637" points="947.439,598.661 948.503,600.428 
	949.565,598.661 947.439,598.661 "/>
<polygon fill="#B00069" stroke="#B00069" stroke-width="0.75" stroke-miterlimit="3.8637" points="946.814,603.039 947.987,601.271 
	945.892,601.569 946.814,603.039 "/>
<polygon fill="#B00069" stroke="#B00069" stroke-width="0.75" stroke-miterlimit="3.8637" points="950.989,601.585 949.036,601.271 
	950.021,603.039 950.989,601.585 "/>
<polygon fill="#B00069" stroke="#B00069" stroke-width="0.75" stroke-miterlimit="3.8637" points="140.765,238.047 149.241,238.049 
	149.242,241.287 140.765,241.286 140.765,238.047 "/>
<polygon fill="#B00069" stroke="#B00069" stroke-width="0.75" stroke-miterlimit="3.8637" points="125.002,291.339 133.479,291.341 
	133.48,294.58 125.002,294.579 125.002,291.339 "/>
<polygon fill="#B00069" stroke="#B00069" stroke-width="0.75" stroke-miterlimit="3.8637" points="722.456,126.877 730.934,126.877 
	730.934,130.116 722.456,130.115 722.456,126.877 "/>
<path fill="none" stroke="#B00069" stroke-width="0.75" stroke-miterlimit="3.8637" d="M841.285,132.433l6.738-0.003l-0.156,0.003
	c0,0,1.251-0.016,1.31,1.114l-0.008-0.064l0.021,1.243c0,0,0.121,0.967-1.222,1.044l-0.031,0.005l-6.584-0.009
	c0,0-1.315,0.15-1.417-0.989v-0.28v-0.966c0,0-0.107-1.271,1.629-1.098 M913.591,108.914l6.74-0.003l-0.156,0.003
	c0,0,1.251-0.016,1.308,1.114l-0.006-0.063l0.021,1.243c0,0,0.121,0.968-1.224,1.044l-0.031,0.006l-6.582-0.01
	c0,0-1.315,0.15-1.417-0.988v-0.281v-0.966c0,0-0.107-1.27,1.629-1.098"/>
<path fill="none" stroke="#B00069" stroke-width="0.75" stroke-miterlimit="3.8637" d="M261.223,208.286
	c0-1.559,1.265-2.823,2.824-2.822c1.559,0,2.823,1.264,2.823,2.823s-1.264,2.823-2.823,2.823
	C262.487,211.11,261.223,209.846,261.223,208.286L261.223,208.286z"/>
<polygon fill="#B00069" stroke="#B00069" stroke-width="0.75" stroke-miterlimit="3.8637" points="249.923,176.462 246.701,170.941 
	253.146,170.941 249.923,176.462 "/>
<polygon fill="#B00069" stroke="#B00069" stroke-width="0.75" stroke-miterlimit="3.8637" points="259.681,218.244 256.459,212.725 
	262.903,212.725 259.681,218.244 "/>
<path fill="none" stroke="#B00069" stroke-width="0.75" stroke-miterlimit="3.8637" d="M243.459,128.474
	c-0.001-1.559,1.263-2.823,2.823-2.823c1.559,0,2.823,1.264,2.823,2.823s-1.262,2.822-2.823,2.822
	C244.723,131.296,243.459,130.033,243.459,128.474L243.459,128.474z"/>
<path fill="none" stroke="#B00069" stroke-width="0.75" stroke-miterlimit="3.8637" d="M472.035,425.081
	c0-1.561,1.264-2.824,2.824-2.824c1.557,0,2.822,1.265,2.822,2.824c0,1.559-1.265,2.825-2.822,2.823
	C473.299,427.904,472.035,426.64,472.035,425.081L472.035,425.081z"/>
<path fill="none" stroke="#B00069" stroke-width="0.75" stroke-miterlimit="3.8637" d="M580.433,442.219
	c0-1.558,1.264-2.824,2.823-2.824c1.56,0.002,2.823,1.267,2.823,2.824c0,1.56-1.264,2.825-2.823,2.825
	C581.697,445.044,580.433,443.778,580.433,442.219L580.433,442.219z"/>
<path fill="none" stroke="#B00069" stroke-width="0.75" stroke-miterlimit="3.8637" d="M881.046,594.177
	c0-1.559,1.263-2.822,2.823-2.822c1.559,0,2.822,1.264,2.822,2.822c0,1.561-1.264,2.823-2.822,2.823
	C882.309,597,881.046,595.735,881.046,594.177L881.046,594.177z"/>
<polygon fill="none" stroke="#B00069" stroke-width="0.75" stroke-miterlimit="3.8637" points="748.694,389.856 753.996,389.856 
	753.996,395.167 748.694,395.167 748.694,389.856 "/>
<polygon fill="#231F20" stroke="#B00069" stroke-width="0.75" stroke-miterlimit="3.8637" points="749.023,389.986 751.32,392.347 
	753.713,389.986 749.023,389.986 "/>
<polygon fill="#231F20" stroke="#B00069" stroke-width="0.75" stroke-miterlimit="3.8637" points="753.729,395.146 751.336,392.77 
	748.975,395.146 753.729,395.146 "/>
<polygon fill="#B00069" stroke="#B00069" stroke-width="0.75" stroke-miterlimit="3.8637" points="749.086,389.986 751.383,392.347 
	753.775,389.986 749.086,389.986 "/>
<polygon fill="#B00069" stroke="#B00069" stroke-width="0.75" stroke-miterlimit="3.8637" points="753.791,395.146 751.398,392.77 
	749.037,395.146 753.791,395.146 "/>
<polygon fill="none" stroke="#B00069" stroke-width="0.75" stroke-miterlimit="3.8637" points="665.771,196.828 671.07,196.828 
	671.07,202.139 665.771,202.139 665.771,196.828 "/>
<polygon fill="#231F20" stroke="#B00069" stroke-width="0.75" stroke-miterlimit="3.8637" points="666.097,196.958 668.396,199.318 
	670.789,196.958 666.097,196.958 "/>
<polygon fill="#231F20" stroke="#B00069" stroke-width="0.75" stroke-miterlimit="3.8637" points="670.804,202.118 668.411,199.741 
	666.05,202.118 670.804,202.118 "/>
<polygon fill="#B00069" stroke="#B00069" stroke-width="0.75" stroke-miterlimit="3.8637" points="666.159,196.958 668.458,199.318 
	670.85,196.958 666.159,196.958 "/>
<polygon fill="#B00069" stroke="#B00069" stroke-width="0.75" stroke-miterlimit="3.8637" points="670.865,202.118 668.474,199.741 
	666.112,202.118 670.865,202.118 "/>
<polygon fill="#B00069" stroke="#B00069" stroke-width="0.75" stroke-miterlimit="3.8637" points="759.122,423.942 759.122,417.82 
	760.672,416.006 762.198,417.82 762.194,423.942 759.122,423.942 "/>
<path fill="none" stroke="#B00069" stroke-width="0.75" stroke-miterlimit="3.8637" d="M804.366,165.344l-1.192,0.793l0.282,1.403
	l-1.405-0.283l-0.792,1.192l-0.791-1.192l-1.407,0.283l0.283-1.403l-1.19-0.793l1.19-0.794l-0.283-1.403l1.407,0.282l0.791-1.192
	l0.792,1.192l1.405-0.282l-0.282,1.403L804.366,165.344L804.366,165.344z M799.529,165.344c0-0.957,0.774-1.731,1.729-1.731
	c0.956,0,1.731,0.774,1.731,1.731c0,0.956-0.775,1.731-1.731,1.731C800.304,167.075,799.529,166.3,799.529,165.344L799.529,165.344z
	"/>
<path fill="none" stroke="#B00069" stroke-width="0.75" stroke-miterlimit="3.8637" d="M573.534,539.352l-1.192,0.792l0.282,1.403
	l-1.403-0.283l-0.793,1.192l-0.793-1.192l-1.402,0.283l0.282-1.403l-1.193-0.792l1.193-0.793l-0.282-1.405l1.402,0.283l0.793-1.192
	l0.793,1.192l1.403-0.283l-0.282,1.405L573.534,539.352L573.534,539.352z M568.697,539.352c0-0.957,0.776-1.732,1.731-1.732
	c0.957,0,1.731,0.775,1.731,1.732c0,0.954-0.774,1.729-1.731,1.729C569.473,541.081,568.697,540.306,568.697,539.352
	L568.697,539.352z"/>
<path fill="none" stroke="#B00069" stroke-width="0.75" stroke-miterlimit="3.8637" d="M576.412,576.753l-1.193,0.796l0.283,1.399
	l-1.404-0.279l-0.792,1.191l-0.793-1.191l-1.403,0.279l0.283-1.399l-1.193-0.796l1.193-0.793l-0.283-1.401l1.403,0.281l0.793-1.191
	l0.792,1.191l1.404-0.281l-0.283,1.401L576.412,576.753L576.412,576.753z M571.574,576.753c0-0.956,0.776-1.729,1.731-1.729
	s1.73,0.773,1.73,1.729s-0.775,1.732-1.73,1.732S571.574,577.709,571.574,576.753L571.574,576.753z"/>
<polygon fill="#B00069" points="264.101,205.607 264.099,211.254 263.477,211.162 262.671,210.817 261.98,210.204 261.56,209.692 
	261.137,208.619 261.367,207.469 261.866,206.586 262.518,205.858 263.592,205.607 264.101,205.607 "/>
<polygon fill="#B00069" points="246.337,125.794 246.337,131.441 245.712,131.35 244.907,131.004 244.216,130.391 243.796,129.879 
	243.373,128.806 243.603,127.656 244.103,126.774 244.754,126.045 245.829,125.794 246.337,125.794 "/>
<polygon fill="#B00069" points="474.913,422.401 474.913,428.049 474.29,427.957 473.484,427.612 472.793,426.998 472.372,426.488 
	471.948,425.413 472.18,424.264 472.678,423.38 473.331,422.652 474.403,422.401 474.913,422.401 "/>
<polygon fill="#B00069" points="583.31,439.539 583.31,445.187 582.688,445.095 581.882,444.75 581.191,444.136 580.769,443.626 
	580.347,442.553 580.578,441.401 581.076,440.521 581.729,439.792 582.801,439.539 583.31,439.539 "/>
<polygon fill="#B00069" points="883.922,591.498 883.922,597.144 883.299,597.055 882.494,596.709 881.804,596.094 881.382,595.583 
	880.961,594.51 881.19,593.358 881.688,592.476 882.34,591.749 883.414,591.498 883.922,591.498 "/>
<path fill-rule="evenodd" clip-rule="evenodd" fill="#B00069" d="M804.366,165.344l-1.192,0.793l0.282,1.403l-1.405-0.283
	l-0.792,1.192l-0.791-1.192l-1.407,0.283l0.283-1.403l-1.19-0.793l1.19-0.794l-0.283-1.403l1.407,0.282l0.791-1.192l0.792,1.192
	l1.405-0.282l-0.282,1.403L804.366,165.344L804.366,165.344z M799.529,165.344c0-0.957,0.774-1.731,1.729-1.731
	c0.956,0,1.731,0.774,1.731,1.731c0,0.956-0.775,1.731-1.731,1.731C800.304,167.075,799.529,166.3,799.529,165.344L799.529,165.344z
	"/>
<path fill-rule="evenodd" clip-rule="evenodd" fill="#B00069" d="M573.534,539.352l-1.192,0.792l0.282,1.403l-1.403-0.283
	l-0.793,1.192l-0.793-1.192l-1.402,0.283l0.282-1.403l-1.193-0.792l1.193-0.793l-0.282-1.405l1.402,0.283l0.793-1.192l0.793,1.192
	l1.403-0.283l-0.282,1.405L573.534,539.352L573.534,539.352z M568.697,539.352c0-0.957,0.776-1.732,1.731-1.732
	c0.957,0,1.731,0.775,1.731,1.732c0,0.954-0.774,1.729-1.731,1.729C569.473,541.081,568.697,540.306,568.697,539.352
	L568.697,539.352z"/>
<path fill-rule="evenodd" clip-rule="evenodd" fill="#B00069" d="M576.412,576.753l-1.193,0.796l0.283,1.399l-1.404-0.279
	l-0.792,1.191l-0.793-1.191l-1.403,0.279l0.283-1.399l-1.193-0.796l1.193-0.793l-0.283-1.401l1.403,0.281l0.793-1.191l0.792,1.191
	l1.404-0.281l-0.283,1.401L576.412,576.753L576.412,576.753z M571.574,576.753c0-0.956,0.776-1.729,1.731-1.729
	s1.73,0.773,1.73,1.729s-0.775,1.732-1.73,1.732S571.574,577.709,571.574,576.753L571.574,576.753z"/>
<rect x="342.515" y="141.374" fill="#231F20" width="2.168" height="0.938"/>
<path fill-rule="evenodd" clip-rule="evenodd" fill="#231F20" d="M176.56,232.252c0-1.382,1.121-2.502,2.503-2.502
	c1.381,0,2.501,1.12,2.501,2.502c0,1.382-1.12,2.501-2.501,2.501C177.681,234.753,176.56,233.634,176.56,232.252L176.56,232.252z
	 M176.373,229.562h5.378v5.379h-5.378V229.562L176.373,229.562z"/>
<path fill-rule="evenodd" clip-rule="evenodd" fill="#231F20" d="M567.139,556.256c0-1.381,1.121-2.501,2.502-2.501
	c1.381,0,2.502,1.12,2.502,2.501s-1.121,2.502-2.502,2.502C568.259,558.758,567.139,557.637,567.139,556.256L567.139,556.256z
	 M566.952,553.565h5.379v5.381h-5.379V553.565L566.952,553.565z"/>
<polygon fill="#231F20" points="292.87,542.334 296.171,546.782 299.475,542.383 299.475,548.17 292.87,548.17 292.87,542.334 "/>
<polygon fill="#231F20" points="292.803,439.864 296.107,444.313 299.409,439.913 299.409,445.701 292.803,445.701 292.803,439.864 
	"/>
<polygon fill="#231F20" points="471.186,313.858 474.491,318.306 477.794,313.906 477.794,319.692 471.186,319.692 471.186,313.858 
	"/>
<polygon fill="#231F20" points="612.109,425.006 612.109,430.652 611.485,430.562 610.682,430.215 609.99,429.602 609.569,429.091 
	609.146,428.018 609.377,426.866 609.875,425.985 610.528,425.257 611.601,425.006 612.109,425.006 "/>
<polygon fill="#231F20" points="597.287,241.3 600.589,245.749 603.892,241.348 603.892,247.136 597.287,247.136 597.287,241.3 "/>
<polygon fill="#231F20" points="538.804,281.409 538.804,285.783 536.408,285.783 538.804,281.409 "/>
<polygon fill="#231F20" points="188.458,95.611 188.458,101.258 187.834,101.167 187.029,100.821 186.339,100.208 185.917,99.696 
	185.495,98.622 185.726,97.473 186.224,96.591 186.875,95.861 187.95,95.611 188.458,95.611 "/>
<polygon fill="#231F20" points="626.81,267.322 630.112,271.77 633.415,267.369 633.415,273.156 626.81,273.156 626.81,267.322 "/>
<polygon fill="#231F20" points="525.229,453.968 528.532,458.416 531.835,454.017 531.835,459.802 525.229,459.802 525.229,453.968 
	"/>
<polygon fill="#231F20" points="578.404,565.414 578.404,571.059 577.781,570.969 576.976,570.625 576.285,570.009 575.863,569.499 
	575.441,568.426 575.672,567.274 576.17,566.392 576.822,565.665 577.896,565.414 578.404,565.414 "/>
<polygon fill="#231F20" points="562.581,566.353 565.883,570.803 569.186,566.401 569.186,572.188 562.581,572.188 562.581,566.353 
	"/>
<polygon fill="#231F20" points="813.796,177.708 813.796,183.355 813.171,183.263 812.366,182.918 811.675,182.305 811.254,181.793 
	810.831,180.72 811.062,179.569 811.56,178.687 812.213,177.959 813.286,177.708 813.796,177.708 "/>
<polygon fill="#231F20" points="747.931,352.286 751.234,356.734 754.537,352.333 754.537,358.12 747.931,358.12 747.931,352.286 
	"/>
<path fill-rule="evenodd" clip-rule="evenodd" fill="#231F20" d="M181.076,237.809c0-1.382,1.119-2.501,2.501-2.501
	c1.382,0,2.502,1.119,2.502,2.501c0,1.382-1.121,2.502-2.502,2.502C182.195,240.311,181.076,239.19,181.076,237.809L181.076,237.809
	z M180.889,235.12h5.378v5.379h-5.378V235.12L180.889,235.12z"/>
<path fill-rule="evenodd" clip-rule="evenodd" fill="#231F20" d="M571.654,561.814c0-1.384,1.121-2.504,2.501-2.504
	c1.382,0,2.503,1.12,2.503,2.504c0,1.38-1.121,2.5-2.503,2.5C572.775,564.314,571.654,563.194,571.654,561.814L571.654,561.814z
	 M571.468,559.124h5.378v5.38h-5.378V559.124L571.468,559.124z"/>
<polygon fill="#231F20" points="563.977,230.604 563.977,234.979 561.581,234.979 563.977,230.604 "/>
<polygon fill="#231F20" points="466.255,310.311 466.255,315.69 467.066,315.178 467.926,314.114 468.364,312.424 467.738,311.284 
	466.816,310.424 466.255,310.311 "/>
<polygon fill="#231F20" points="465.005,315.815 464.213,315.697 463.522,315.083 463.101,314.572 462.678,313.499 462.909,312.349 
	463.409,311.466 464.058,310.738 465.005,310.437 465.005,315.815 "/>
<polygon fill="#231F20" points="523.802,308.059 523.802,313.438 524.611,312.925 525.471,311.861 525.909,310.173 525.283,309.032 
	524.361,308.171 523.802,308.059 "/>
<polygon fill="#231F20" points="522.55,313.563 521.757,313.444 521.068,312.832 520.646,312.32 520.225,311.246 520.454,310.096 
	520.953,309.214 521.604,308.485 522.55,308.184 522.55,313.563 "/>
<polygon fill="#231F20" points="612.872,304.056 612.872,309.436 613.682,308.922 614.542,307.858 614.979,306.169 614.354,305.028 
	613.431,304.168 612.872,304.056 "/>
<polygon fill="#231F20" points="611.621,309.56 610.828,309.442 610.138,308.829 609.715,308.316 609.294,307.244 609.524,306.093 
	610.022,305.211 610.675,304.482 611.621,304.181 611.621,309.56 "/>
<path fill-rule="evenodd" clip-rule="evenodd" fill="#231F20" d="M569.232,478.459l-1.191,0.792l0.282,1.403l-1.403-0.28
	l-0.793,1.192l-0.792-1.192l-1.404,0.28l0.281-1.403l-1.192-0.792l1.192-0.793l-0.281-1.405l1.404,0.283l0.792-1.19l0.793,1.19
	l1.403-0.283l-0.282,1.405L569.232,478.459L569.232,478.459z M564.396,478.459c0-0.957,0.775-1.731,1.731-1.731
	c0.956,0,1.731,0.774,1.731,1.731c0,0.954-0.775,1.729-1.731,1.729C565.171,480.188,564.396,479.413,564.396,478.459
	L564.396,478.459z"/>
<path fill-rule="evenodd" clip-rule="evenodd" fill="#231F20" d="M273.294,422.368l-1.191,0.792l0.282,1.404l-1.404-0.283
	l-0.792,1.193l-0.793-1.193l-1.402,0.283l0.283-1.404l-1.193-0.792l1.193-0.792l-0.283-1.405l1.402,0.283l0.793-1.191l0.792,1.191
	l1.404-0.283l-0.282,1.405L273.294,422.368L273.294,422.368z M268.458,422.368c0-0.957,0.774-1.73,1.73-1.73
	c0.956,0,1.73,0.774,1.73,1.73s-0.775,1.731-1.73,1.731C269.232,424.1,268.458,423.325,268.458,422.368L268.458,422.368z"/>
<polygon fill="#231F20" points="159.146,232.27 159.146,237.647 159.957,237.135 160.818,236.072 161.255,234.384 160.63,233.243 
	159.707,232.381 159.146,232.27 "/>
<polygon fill="#231F20" points="157.896,237.772 157.104,237.654 156.413,237.041 155.993,236.53 155.57,235.456 155.8,234.306 
	156.298,233.423 156.951,232.696 157.896,232.394 157.896,237.772 "/>
<polygon fill="#231F20" points="216.873,314.874 216.873,320.253 217.683,319.74 218.542,318.678 218.98,316.989 218.355,315.847 
	217.432,314.987 216.873,314.874 "/>
<polygon fill="#231F20" points="215.97,320.032 215.178,319.913 214.486,319.299 214.065,318.789 213.643,317.715 213.874,316.564 
	214.371,315.683 215.024,314.954 215.969,314.653 215.97,320.032 "/>
<path fill="#FFFFFF" d="M226.038,353.476c0-0.566,0.463-1.026,1.037-1.026c0.573,0,1.037,0.459,1.037,1.026
	c0,0.567-0.464,1.026-1.037,1.026C226.501,354.501,226.038,354.042,226.038,353.476L226.038,353.476z"/>
<path fill="#FFFFFF" d="M903.23,464.634c0-0.569,0.464-1.027,1.036-1.027c0.573,0,1.038,0.458,1.038,1.027
	c0,0.565-0.465,1.026-1.038,1.026C903.694,465.66,903.23,465.199,903.23,464.634L903.23,464.634z"/>
<path fill="#FFFFFF" d="M915.24,406.836c0-0.566,0.462-1.025,1.036-1.025c0.573,0,1.037,0.459,1.037,1.025
	c0,0.567-0.464,1.027-1.037,1.027C915.702,407.863,915.24,407.403,915.24,406.836L915.24,406.836z"/>
<path fill="#FFFFFF" d="M1042.505,553.067c0-0.569,0.465-1.026,1.036-1.026c0.574,0,1.038,0.457,1.038,1.026
	c0,0.564-0.464,1.024-1.038,1.024C1042.97,554.092,1042.505,553.632,1042.505,553.067L1042.505,553.067z"/>
<path fill="#FFFFFF" d="M248.69,172.735c0-0.595,0.487-1.079,1.089-1.079c0.601,0,1.087,0.483,1.087,1.079
	c0,0.595-0.487,1.077-1.087,1.077C249.177,173.812,248.69,173.33,248.69,172.735L248.69,172.735z"/>
<path fill="#FFFFFF" d="M258.447,214.518c0-0.595,0.488-1.077,1.089-1.077c0.601,0,1.088,0.482,1.088,1.077
	c0,0.596-0.488,1.078-1.088,1.078C258.935,215.595,258.447,215.114,258.447,214.518L258.447,214.518z"/>
</svg>
