<?xml version="1.0" encoding="utf-8"?>
<!-- Generator: Adobe Illustrator 16.0.3, SVG Export Plug-In . SVG Version: 6.00 Build 0)  -->
<!DOCTYPE svg PUBLIC "-//W3C//DTD SVG 1.1//EN" "http://www.w3.org/Graphics/SVG/1.1/DTD/svg11.dtd">
<svg version="1.1" id="ОТКРЫТИЯ" xmlns="http://www.w3.org/2000/svg" xmlns:xlink="http://www.w3.org/1999/xlink" x="0px"
	 y="0px" width="3646.566px" height="2372.037px" viewBox="0 0 3646.566 2372.037" enable-background="new 0 0 3646.566 2372.037"
	 xml:space="preserve">
<g id="Бартоломеу_Диаш">
	<path fill="none" stroke="#0A50A1" stroke-width="3.5717" stroke-miterlimit="3.8637" stroke-dasharray="8,4" d="M1361.955,720.776
		c-8.506,16.109-27.797,71.723-32.901,83c-5.103,11.277-38.557,55.17-53.867,84.167c-15.311,28.998-27.216,42.009-30.308,49.447
		c-12.367,29.743-2.16,10.411-7.264,20.077c-5.104,9.667-0.424,9.019,1.277,20.296c1.7,11.276-1.701,38.664-1.701,38.664
		s-11.909,20.943-10.208,38.664c1.702,17.721,4.253,33.831,12.759,43.497s17.862,36.247,29.771,50.746s47.633,45.913,47.633,45.913
		s11.908,3.223,28.919-3.222s18.713-8.055,25.518-6.444c6.805,1.611,25.004-6.286,25.004-6.286
		c5.84-15.556,8.249-14.099,20.502-0.56c10.207,11.277,75.081,71.866,81.23,87.396c7.656,19.332,33.173,38.664,36.576,59.606
		c3.402,20.944,7.851,49.629-1.781,66.072c-8.542,14.582-8.736,43.271-8.736,43.271s0.31,27.593,8.816,37.259
		c8.506,9.665,10.207,6.444,18.713,33.83c8.506,27.388,13.184,53.969,23.391,73.301l32.747,62.023c0,0-3.401,10.471-0.85,20.137
		c3.914,14.828,17.012,20.943,30.621,20.943c13.406,0,27.219-3.222,38.276-6.444"/>
	<polygon fill="#0A50A1" stroke="#0A50A1" stroke-width="3.5717" stroke-miterlimit="3.8637" points="1673.047,1676.141 
		1672.605,1678.266 1676.911,1674.868 1671.239,1674.538 	"/>
	<g>
		<path fill-rule="evenodd" clip-rule="evenodd" fill="#0A50A1" d="M1472.984,1271.198l8.578-8l-5.513-5.912l-1.989,1.854
			c-3.605,3.363-6.36,4.176-8.303,4.309l-0.812-0.87l-3.171,3.163l1.056,1.133l2.183-2.035l7.008,7.515l-2.183,2.036l1.056,1.132
			l3.391-2.929L1472.984,1271.198z M1479.26,1262.917l-7.487,6.981l-4.573-4.903c3.011-0.482,5.226-1.902,7.768-4.273l1.202-1.12
			L1479.26,1262.917z"/>
		<polygon fill-rule="evenodd" clip-rule="evenodd" fill="#0A50A1" points="1477.441,1274.912 1485.707,1268.219 1484.589,1266.839 
			1474.313,1275.161 1475.43,1276.541 1488.187,1275.275 1479.864,1282.015 1480.981,1283.396 1491.257,1275.074 1490.14,1273.694 
					"/>
		<path fill-rule="evenodd" clip-rule="evenodd" fill="#0A50A1" d="M1486.558,1285.056l3.364,4.465l-1.98,3.054l1.147,1.523
			l7.549-11.955l-1.137-1.509l-13.572,3.961l1.147,1.523L1486.558,1285.056z M1488.044,1284.55l6.592-2.082l-3.818,5.764
			L1488.044,1284.55z"/>
		<polygon fill-rule="evenodd" clip-rule="evenodd" fill="#0A50A1" points="1492.126,1296.052 1501.964,1289.664 1500.998,1288.173 
			1489.908,1295.376 1498.631,1308.808 1509.72,1301.607 1508.753,1300.117 1498.916,1306.506 1496.004,1302.023 1505.843,1295.634 
			1504.875,1294.146 1495.038,1300.535 		"/>
		<path fill-rule="evenodd" clip-rule="evenodd" fill="#0A50A1" d="M1511.708,1311.484l1.419,2.668l-8.772,4.664l0.833,1.568
			l11.675-6.207l-0.585-1.102c-1.356,0.507-2.82-0.275-3.565-1.677l-0.186-0.351L1511.708,1311.484z"/>
		<path fill-rule="evenodd" clip-rule="evenodd" fill="#0A50A1" d="M1512.218,1328.847l-2.876,1.047l0.607,1.668l2.875-1.047
			l0.711,1.953l1.402-0.512l-0.711-1.951l8.147-2.967l-0.613-1.686l-10.273-2.873l-1.402,0.51L1512.218,1328.847z M1512.07,1324.078
			l7.515,2.088l-5.964,2.171L1512.07,1324.078z"/>
		<path fill-rule="evenodd" clip-rule="evenodd" fill="#0A50A1" d="M1518.292,1336.001c-0.678-1.407-2.312-1.994-3.813-1.701
			c-2.226,0.432-3.794,2.16-3.21,5.164s2.686,4.02,4.911,3.586c1.502-0.291,2.798-1.447,2.898-3.006
			c0.657,1.104,1.978,1.559,3.22,1.316c1.354-0.263,3.338-1.438,2.729-4.57c-0.608-3.134-2.889-3.479-4.242-3.217
			C1519.542,1333.816,1518.489,1334.732,1518.292,1336.001z M1519.297,1337.904c-0.324-1.668,0.573-2.497,1.741-2.725
			c0.668-0.129,2.205-0.14,2.598,1.881c0.393,2.021-1.036,2.588-1.703,2.717C1520.764,1340.005,1519.623,1339.572,1519.297,1337.904
			z M1512.66,1339.194c-0.245-1.261,0.289-2.864,2.236-3.243c1.075-0.21,2.648,0.063,3.066,2.213s-0.938,2.992-2.014,3.2
			C1514.001,1341.744,1512.904,1340.455,1512.66,1339.194z"/>
		<path fill-rule="evenodd" clip-rule="evenodd" fill="#0A50A1" d="M1524.444,1343.949l0.965,7.855
			c-1.921-1.381-4.252-2.39-6.205-2.949c-2.229-0.64-4.157-0.84-6.081-0.852l0.23,1.875c2.395-0.027,4.069,0.128,6.215,0.701
			c2.322,0.629,4.188,1.408,6.334,2.914l1.199-0.146l-1.176-9.58L1524.444,1343.949z"/>
		
			<rect x="1511.292" y="1364.077" transform="matrix(-0.0523 -0.9986 0.9986 -0.0523 236.3093 2953.5842)" fill-rule="evenodd" clip-rule="evenodd" fill="#0A50A1" width="16.696" height="1.172"/>
		<path fill-rule="evenodd" clip-rule="evenodd" fill="#0A50A1" d="M1522.164,1377.611c-0.397-1.512-1.89-2.399-3.42-2.399
			c-2.267,0-4.137,1.397-4.137,4.458s1.87,4.457,4.137,4.457c1.53,0,3.022-0.888,3.42-2.398c0.434,1.209,1.643,1.908,2.908,1.908
			c1.379,0,3.552-0.775,3.552-3.967c0-3.192-2.173-3.967-3.552-3.967C1523.806,1375.703,1522.597,1376.402,1522.164,1377.611z
			 M1522.787,1379.669c0-1.7,1.039-2.342,2.229-2.342c0.68,0,2.191,0.283,2.191,2.342s-1.512,2.342-2.191,2.342
			C1523.826,1382.011,1522.787,1381.369,1522.787,1379.669z M1516.024,1379.669c0-1.285,0.831-2.758,2.814-2.758
			c1.096,0,2.588,0.566,2.588,2.758s-1.492,2.758-2.588,2.758C1516.855,1382.427,1516.024,1380.955,1516.024,1379.669z"/>
		<path fill-rule="evenodd" clip-rule="evenodd" fill="#0A50A1" d="M1521.881,1388.976c-0.317-1.529-1.761-2.494-3.288-2.574
			c-2.264-0.119-4.205,1.18-4.365,4.234c-0.16,3.057,1.635,4.55,3.898,4.668c1.527,0.08,3.064-0.729,3.539-2.215
			c0.371,1.229,1.542,1.99,2.806,2.056c1.377,0.073,3.587-0.587,3.754-3.774s-1.962-4.074-3.339-4.147
			C1523.623,1387.158,1522.378,1387.792,1521.881,1388.976z M1522.396,1391.065c0.089-1.698,1.16-2.284,2.349-2.222
			c0.679,0.035,2.174,0.396,2.065,2.453c-0.107,2.056-1.631,2.26-2.311,2.224
			C1523.311,1393.458,1522.307,1392.763,1522.396,1391.065z M1515.643,1390.71c0.067-1.282,0.975-2.709,2.955-2.605
			c1.094,0.057,2.555,0.701,2.44,2.889c-0.115,2.188-1.635,2.676-2.729,2.618C1516.329,1393.509,1515.576,1391.994,1515.643,1390.71
			z"/>
	</g>
</g>
</svg>
