<?xml version="1.0" encoding="utf-8"?>
<!-- Generator: Adobe Illustrator 16.0.3, SVG Export Plug-In . SVG Version: 6.00 Build 0)  -->
<!DOCTYPE svg PUBLIC "-//W3C//DTD SVG 1.1//EN" "http://www.w3.org/Graphics/SVG/1.1/DTD/svg11.dtd">
<svg version="1.1" id="ОТКРЫТИЯ" xmlns="http://www.w3.org/2000/svg" xmlns:xlink="http://www.w3.org/1999/xlink" x="0px"
	 y="0px" width="3646.566px" height="2372.037px" viewBox="0 0 3646.566 2372.037" enable-background="new 0 0 3646.566 2372.037"
	 xml:space="preserve">
<g id="Пифей">
	<path fill="none" stroke="#0C7703" stroke-width="3" stroke-dasharray="5,3" d="M1515.022,677.595
		c-10.313,0.068-10.373,0.811-15.977,8.223c-5.325,7.042-11.188,13.16-17.801,18.774c-6.297,5.346-13.803,8.482-19,15.249
		c-3.689,4.803-5.52,10.702-9.39,15.532c-9.84,12.28-15.156,26.307-32.884,27.223c-19.081,0.986-36.446,0.411-54.774-2.174
		c-6.514-15.404-16.146-21.666-9.37-39.799c5.189-13.886,13.725-25.619,15.219-41.026c0.717-7.398-0.094-15.477,7.953-18.02
		c6.865-2.169,22.17,1.02,30.047,1.02c19.086,0,32.51,2.563,35.953-19.023c1.631-10.226,1.528-14.99-5.025-22.754
		c-4.793-5.68-8.469-10.143-10.729-17.223c-4.866-15.242-2.295-30.877,4.801-44.777c5.602-10.975,13.209-24.829,16.176-38.023
		c3.502-15.574-4.805-29.3-2.199-45.198c2.853-17.407,18.526-39.463,37.353-28.43c8.742,5.124,7.749,8.398,18.772,2.489
		c7.58-4.063,14.707-10.101,20.875-16.06c10.075-9.734,18.031-17.304,29.726-25.194c11.884-8.018,27.23-15.669,36.274-25.806"/>
	<path fill="none" stroke="#0C7703" stroke-width="3" stroke-dasharray="5,3" d="M1458.022,443.595c0-7,0-14,0-21"/>
	<path fill="none" stroke="#0C7703" stroke-width="3" stroke-dasharray="5,3" d="M1497.022,458.595
		c2.51,11.727,1.627,18.695-4.1,29.003c5.801,9.14,2.354,22.625,6.123,32.025c3.629,9.052,11.943,17.74,11.124,27.869
		c6.649-3.315,9.563-10.798,16.127-14.672c6.404-3.781,14.071-4.285,20.702-7.248c14.634-6.537,12.391-23.725,18-38.226
		c5.298-13.694,27.86-26.897,32.075-4.751c2.749,14.442-7.876,38.964,14.87,33.997c6.084-1.329,14.351-4.566,19.078-6.997"/>
	<polygon fill="#0C7703" stroke="#0C7703" stroke-width="1.2756" stroke-linejoin="round" stroke-miterlimit="3.8637" points="
		1464.955,716.127 1470.917,703.207 1477.218,710.133 	"/>
	<polygon fill="#0C7703" stroke="#0C7703" stroke-width="1.2756" stroke-linejoin="round" stroke-miterlimit="3.8637" points="
		1399.751,762.191 1413.239,757.655 1412.53,766.991 	"/>
	<polygon fill="#0C7703" stroke="#0C7703" stroke-width="1.2756" stroke-linejoin="round" stroke-miterlimit="3.8637" points="
		1371.115,679.207 1372.214,693.394 1363.335,690.423 	"/>
	<polygon fill="#0C7703" stroke="#0C7703" stroke-width="1.2756" stroke-linejoin="round" stroke-miterlimit="3.8637" points="
		1431.246,608.83 1442.536,617.491 1434.392,622.112 	"/>
	<polygon fill="#0C7703" stroke="#0C7703" stroke-width="1.2756" stroke-linejoin="round" stroke-miterlimit="3.8637" points="
		1457.762,414.568 1463.764,427.469 1454.407,427.799 	"/>
	<polygon fill="#0C7703" stroke="#0C7703" stroke-width="1.2756" stroke-linejoin="round" stroke-miterlimit="3.8637" points="
		1453.953,458.95 1453.445,473.17 1444.958,469.216 	"/>
	<polygon fill="#0C7703" stroke="#0C7703" stroke-width="1.2756" stroke-linejoin="round" stroke-miterlimit="3.8637" points="
		1592.684,379.305 1587.428,392.529 1580.762,385.953 	"/>
	<polygon fill="#0C7703" stroke="#0C7703" stroke-width="1.2756" stroke-linejoin="round" stroke-miterlimit="3.8637" points="
		1495.357,497.658 1488.275,485.316 1497.57,484.188 	"/>
	<polygon fill="#0C7703" stroke="#0C7703" stroke-width="1.2756" stroke-linejoin="round" stroke-miterlimit="3.8637" points="
		1561.042,507.462 1558.477,521.459 1550.653,516.315 	"/>
	<polygon fill="#0C7703" stroke="#0C7703" stroke-width="1.2756" stroke-linejoin="round" stroke-miterlimit="3.8637" points="
		1637.845,507.138 1626.591,515.847 1624.199,506.794 	"/>
</g>
</svg>
